http://0.0.0.0:9999/Test_files/photo.jpg
http://0.0.0.0:9999/Test_files/movie.mp4
http://0.0.0.0:9999/Test_files/chair.jpeg
http://0.0.0.0:9999/Test_files/giraffe_toy.jpg
http://0.0.0.0:9999/Test_files/Ufff.jpg